{
    "status": true,
    "totals": 207,
     "result_code": "000",
    "result_desc": "success",
    "Channels": [
	{
            "channel_id": 1,
            "channel_name": "&Flix HD",
            "channel_description": "",
            "channel_url" : "https://y5w8j4a9.ssl.hwcdn.net/andflixhd/tracks-v1a1/index.m3u8"
        },
    {
            "channel_id": 2,
            "channel_name": "Docurama",
            "channel_description": "",
            "channel_url" : "https://cinedigm.vo.llnwd.net/conssui/amagi_hls_data_xumo1234A-docuramaA/CDN/1920x1080_4528000/chunklist.m3u8"
        },
    {
            "channel_id": 3,
            "channel_name": "Film Rise Movies",
            "channel_description": "",
            "channel_url" : "https://dai2.xumo.com/xumocdn/p=roku/amagi_hls_data_xumo1212A-filmrisefreemovies/CDN/1280x720_5000000/chunklist.m3u8"
        },
    {
            "channel_id": 4,
            "channel_name": "Hi Yah!",
            "channel_description": "",
            "channel_url" : "https://dai2.xumo.com/amagi_hls_data_xumo1212A-redboxhi-ya/CDN/1280x720_5000000/index.m3u8"
        },
    {
            "channel_id": 5,
            "channel_name": "MNX",
            "channel_description": "",
            "channel_url" : "https://timesnow.airtel.tv/live/MNX_pull/master.m3u8"
        },
    {
            "channel_id": 6,
            "channel_name": "Screamfest",
            "channel_description": "",
            "channel_url" : "https://vcnleomarkstudios.teleosmedia.com/stream/leomarkstudios/screamfest/seglist_720p.m3u8"
        },
    {
            "channel_id": 7,
            "channel_name": "American Horror",
            "channel_description": "",
            "channel_url" : "http://170.178.189.66:1935/live/Stream1/chunklist_w1292014337.m3u8"
        },
    {
            "channel_id": 8,
            "channel_name": "MNP HD",
            "channel_description": "",
            "channel_url" : "http://hls.mirtv.cdnvideo.ru:80/mirtv-parampublish/mirtv_2500/chunklist.m3u8"
        },
    {
            "channel_id": 9,
            "channel_name": "News1",
            "channel_description": "",
            "channel_url" : "http://news1.live14.com/stream/news1_hi.m3u8"
        },
	{
            "channel_id": 10,
            "channel_name": "CTB",
            "channel_description": "",
            "channel_url": "http://vip.login.in.th:1935/CTB/CTB/chunklist_w503199585.m3u8"
        },
	{
            "channel_id": 11,
            "channel_name": "Sky Racing 1 HD",
            "channel_description": "",
            "channel_url": "https://skylivesky-i.akamaihd.net/hls/live/569780/skylive/sky1_extreme@569780.m3u8"
        },
	{
            "channel_id": 12,
            "channel_name": "Sky Racing 2 HD",
            "channel_description": "",
            "channel_url": "https://skylivesky-i.akamaihd.net/hls/live/569780/skylive/sky2_extreme@569780.m3u8"
        },
	{
            "channel_id": 13,
            "channel_name": "Aniplus",
            "channel_description": "",
            "channel_url": "http://45.126.83.51/session/ab3598b4-e1e5-11ea-bf97-a8d4877e993e/dr9445/h/h02/01.m3u8"
        },
	{
            "channel_id": 14,
            "channel_name": "Animax",
            "channel_description": "",
            "channel_url": "http://45.126.83.51/dr9445/h/h144/01.m3u8"
        },
	{
            "channel_id": 15,
            "channel_name": "Cartoon Network HD",
            "channel_description": "",
            "channel_url": "https://www.livedoomovies.com/02_CartoonNetwork_720p/chunklist.m3u8"
        },
	{
            "channel_id": 16,
            "channel_name": "Cartoon Club",
            "channel_description": "",
            "channel_url": "http://edge4-bkk.3bb.co.th:1935/CartoonClub_Livestream/cartoonclub_480P.stream/chunklist.m3u8"
        },
	{
            "channel_id": 17,
            "channel_name": "TCT Kids",
            "channel_description": "",
            "channel_url": "https://bcoveliveios-i.akamaihd.net/hls/live/206632/1997976452001/FamilyHLS/playlist.m3u8"
        },
	{
            "channel_id": 18,
            "channel_name": "MONO29 HD",
            "channel_description": "",
            "channel_url": "https://edge2-bkk.3bb.co.th:9443/MONO29_HLS_1080P/mono29hls_1080TH.stream/chunklist_w1578972109.m3u8"
        },
	{
            "channel_id": 19,
            "channel_name": "Fashion TV",
            "channel_description": "",
            "channel_url": "http://lb.streaming.sk/fashiontv/stream/chunklist_w1402273512.m3u8"
        },
	{
            "channel_id": 20,
            "channel_name": "Metro TV HD",
            "channel_description": "",
            "channel_url": "http://edge.metrotvnews.com:1935/live-edge/smil:metro.smil/chunklist_w1584163574_b1492000_sleng.m3u8"
        },
	{
            "channel_id": 21,
            "channel_name": "True Premier football SD 1",
            "channel_description": "",
            "channel_url": "https://www.livedoomovies.com/02_PremierHD1_480p/chunklist.m3u8"
        },
	{
            "channel_id": 22,
            "channel_name": "True Premier football SD 2",
            "channel_description": "",
            "channel_url": "https://www.livedoomovies.com/02_PremierHD2_480p/chunklist.m3u8"
        },
	{
            "channel_id": 23,
            "channel_name": "True Premier football SD 3",
            "channel_description": "",
            "channel_url": "https://www.livedoomovies.com/02_PremierHD3_480p/chunklist.m3u8"
        },
	{
            "channel_id": 24,
            "channel_name": "True Premier football SD 4",
            "channel_description": "",
            "channel_url": "https://www.livedoomovies.com/02_PremierHD4_480p/chunklist.m3u8"
        },
    {
            "channel_id": 25,
            "channel_name": "True Premier football HD 1",
            "channel_description": "",
            "channel_url": "http://160.119.77.116:8081/iptv/epl-1.stream/playlist.m3u8"
        },
    {
            "channel_id": 26,
            "channel_name": "True Premier football HD 2",
            "channel_description": "",
            "channel_url": "http://160.119.77.116:8081/iptv/epl-2.stream/playlist.m3u8"
        },
	{
            "channel_id": 27,
            "channel_name": "CBS News",
            "channel_description": "",
            "channel_url": "http://cbsnewshd-lh.akamaihd.net/i/CBSNHD_7@199302/master.m3u8"
        },
	{
            "channel_id": 28,
            "channel_name": "PPTV HD",
            "channel_description": "",
            "channel_url": "http://live2.dootvde.com/live/50026_pptv_hd.stream.smil/playist.m3u8"
        },
	{
            "channel_id": 29,
            "channel_name": "Euro Sport 2 4K",
            "channel_description": "",
            "channel_url": "http://zabava-htlive.cdn.ngenix.net/hls/CH_EUROSPORT4K_HLS/bw6000000/variant.m3u8?version=2&offset=-7200"
        },
	{
            "channel_id": 30,
            "channel_name": "Euro Sport 3 4K",
            "channel_description": "",
            "channel_url": "http://zabava-htlive.cdn.ngenix.net/hls/CH_EUROSPORT4K_HLS/bw6000000/variant.m3u8?version=2&offset=-10800"
        },
	{
            "channel_id": 31,
            "channel_name": "Euro Sport 4 4K",
            "channel_description": "",
            "channel_url": "http://zabava-htlive.cdn.ngenix.net/hls/CH_EUROSPORT4K_HLS/bw6000000/variant.m3u8?version=2&offset=-14400"
        },
    {
            "channel_id": 32,
            "channel_name": "Euro Sport 44 4K",
            "channel_description": "",
            "channel_url": "http://zabava-htlive.cdn.ngenix.net/hls/CH_EUROSPORT4K_HLS/bw6000000/variant.m3u8?version=2&offset=-158400"
        },
    {
            "channel_id": 33,
            "channel_name": "Euro Sport 45 4K",
            "channel_description": "",
            "channel_url": "http://zabava-htlive.cdn.ngenix.net/hls/CH_EUROSPORT4K_HLS/bw6000000/variant.m3u8?version=2&offset=-162000"
        },
    {
            "channel_id": 34,
            "channel_name": "Euro Sport 46 4K",
            "channel_description": "",
            "channel_url": "http://zabava-htlive.cdn.ngenix.net/hls/CH_EUROSPORT4K_HLS/bw6000000/variant.m3u8?version=2&offset=-165600"
        },
    {
            "channel_id": 35,
            "channel_name": "Euro Sport 48 4K",
            "channel_description": "",
            "channel_url": "http://zabava-htlive.cdn.ngenix.net/hls/CH_EUROSPORT4K_HLS/bw6000000/variant.m3u8?version=2&offset=-172800"
        },
    {
            "channel_id": 36,
            "channel_name": "Euro Sport 50 4K",
            "channel_description": "",
            "channel_url": "http://zabava-htlive.cdn.ngenix.net/hls/CH_EUROSPORT4K_HLS/bw6000000/variant.m3u8?version=2&offset=-180000"
        },
    {
            "channel_id": 37,
            "channel_name": "Abu Dhabi Sports 1",
            "channel_description": "",
            "channel_url": "http://admdn1.cdn.mangomolo.com/adsports1/smil:adsports1.stream.smil/chunklist_b1800000_t64NzIwcA==.m3u8"
        },
    {
            "channel_id": 38,
            "channel_name": "Abu Dhabi Sports 2",
            "channel_description": "",
            "channel_url": "http://admdn5.cdn.mangomolo.com/adsports2/smil:adsports2.stream.smil/chunklist_b125000_t64MTgwcA==.m3u8"
        },
    {
            "channel_id": 39,
            "channel_name": "Abu Dhabi Sports 3",
            "channel_description": "",
            "channel_url": "http://admdn3.cdn.mangomolo.com/adsports3/smil:adsports3.stream.smil/chunklist_b125000_t64MTgwcA==.m3u8"
        },
  	{
            "channel_id": 40,
            "channel_name": "Abu Dhabi Sports 4",
            "channel_description": "",
            "channel_url": "http://admdn4.cdn.mangomolo.com/adsports4/smil:adsports4.stream.smil/chunklist_b125000_t64MTgwcA==.m3u8"
        },
    {
            "channel_id": 41,
            "channel_name": "Red by HBO",
            "channel_description": "",
            "channel_url": "https://liveorigin01.hbogoasia.com:8443/origin/live/main/RED/index.m3u8"
        },
	{
            "channel_id": 42,
            "channel_name": "HBO Family",
            "channel_description": "",
            "channel_url": "https://liveorigin01.hbogoasia.com:8443/origin/live/main/FAMILY/index.m3u8"
        },
    {
            "channel_id": 43,
            "channel_name": "HBO Signature",
            "channel_description": "",
            "channel_url": "https://liveorigin01.hbogoasia.com:8443/origin/live/main/SIG/index.m3u8"
        },
    {
            "channel_id": 44,
            "channel_name": "Sport TV 1 HD",
            "channel_description": "",
            "channel_url" : "https://www.livedoomovies.com/02_SPORTTV_1_720p/chunklist.m3u8"
        },
    {
            "channel_id": 45,
            "channel_name": "Sport TV 2 HD",
            "channel_description": "",
            "channel_url" : "https://www.livedoomovies.com/02_SPORTTV_2_720p/chunklist.m3u8"
        },
    {
        	"channel_id": 46,
            "channel_name": "Sport TV 3 HD",
            "channel_description": "",
            "channel_url" : "https://www.livedoomovies.com/02_SPORTTV_3_720p/chunklist.m3u8"
        },
    {
            "channel_id": 47,
            "channel_name": "Sport TV 4 HD",
            "channel_description": "",
            "channel_url" : "https://www.livedoomovies.com/02_SPORTTV_4_720p/chunklist.m3u8"
        },
    {
            "channel_id": 48,
            "channel_name": "Sport TV 5 HD",
            "channel_description": "",
            "channel_url" : "https://www.livedoomovies.com/02_SPORTTV_5_720p/chunklist.m3u8"
        },
    {
            "channel_id": 49,
            "channel_name": "BT Sport 1 HD",
            "channel_description": "",
            "channel_url" : "https://www.livedoomovies.com/02_BTSPORTHD_1_720p/chunklist.m3u8"
        },
    {
            "channel_id": 50,
            "channel_name": "BT Sport 2 HD",
            "channel_description": "",
            "channel_url" : "https://www.livedoomovies.com/02_BTSPORTHD_2_720p/chunklist.m3u8"
        },
 	{
            "channel_id": 51,
            "channel_name": "Fox Sports 1",
            "channel_description": "",
            "channel_url": "https://www.livedoomovies.com/02_foxsport_720p/chunklist.m3u8"
        },
    {
            "channel_id": 52,
            "channel_name": "Fox Sports 3",
            "channel_description": "",
            "channel_url": "https://www.livedoomovies.com/02_FoxSport3_TH_720p/chunklist.m3u8"
        },
    {
        	"channel_id": 53,
            "channel_name": "Fox Sports New Australia",
            "channel_description": "",
            "channel_url" : "https://austchannel-live.akamaized.net/hls/live/2002736/austchannel-sport/master1280x720.m3u8"
        },
    {
        	"channel_id": 54,
            "channel_name": "Bein Sports 1",
            "channel_description": "",
            "channel_url" : "https://www.livedoomovies.com/02_epl1_720p/chunklist.m3u8"
        },
    {
        	"channel_id": 55,
            "channel_name": "Bein Sports 2",
            "channel_description": "",
            "channel_url" : "https://www.livedoomovies.com/02_epl2_720p/chunklist.m3u8"
        },
    {
        	"channel_id": 56,
            "channel_name": "Ten Sports",
            "channel_description": "",
            "channel_url" : "http://125.209.99.45:43568/BRN/TenSports.stream/chunklist_w2093393586.m3u8"
        },
    {
            "channel_id": 57,
            "channel_name": "Sports Max TV HD",
            "channel_description": "",
            "channel_url" : "http://161.0.157.5/PLTV/88888888/224/3221226766/01.m3u8"
        },
    {
            "channel_id": 58,
            "channel_name": "TVRI Sports",
            "channel_description": "",
            "channel_url" : "http://wpc.d1627.nucdn.net:80/80D1627/o-tvri/Content/HLS/Live/Channel(TVRI4)/Stream(03)/index.m3u8"
        },

	{
            "channel_id": 59,
            "channel_name": "Red Bull TV",
            "channel_description": "",
            "channel_url": "https://rbmn-live.akamaized.net/hls/live/590964/BoRB-AT/master_3360.m3u8"
        },
 	{
            "channel_id": 60,
            "channel_name": "Tennis Channel+",
            "channel_description": "",
            "channel_url": "https://playoutengine.sinclairstoryline.com/playout/f2f8b269-dd85-4434-bdd3-b3a64ca9cd60/g.m3u8"
        },
 	{
            "channel_id": 61,
            "channel_name": "Tennis Channel",
            "channel_description": "",
            "channel_url": "https://playoutengine.sinclairstoryline.com/playout/9f87522c-5a0e-4ff4-b82c-d5564216132f/g.m3u8"
        },
	{
            "channel_id": 62,
            "channel_name": "Real Madrid TV",
            "channel_description": "",
            "channel_url": "http://rmtvlive-lh.akamaihd.net/i/rmtv_1@154306/index_1000_av-p.m3u8"
        },
	{
            "channel_id": 63,
            "channel_name": "World Of Free sports",
            "channel_description": "",
            "channel_url": "https://a.jsrdn.com/broadcast/22723/+0000/hi/c.m3u8"
        },
	{
            "channel_id": 64,
            "channel_name": "NBA HD",
            "channel_description": "",
            "channel_url": "https://www.livedoomovies.com/02_nbahd_720p/chunklist.m3u8"
        },
	{
            "channel_id": 65,
            "channel_name": "RTM Sports HD",
            "channel_description": "",
            "channel_url": "https://rtm2mobile.secureswiftcontent.com/Origin02/ngrp:RTM2/chunklist_b2064000.m3u8"
        },
	{
            "channel_id": 66,
            "channel_name": "Fight Time",
            "channel_description": "",
            "channel_url": "http://node01.openfutbol.es/SVoriginOperatorEdge/128761.smil/chunklist_w978039031_b664000.m3u8"
        },
    {
            "channel_id": 67,
            "channel_name": "Olympic Channel 1",
            "channel_description": "",
            "channel_url": "https://ott-live.olympicchannel.com/out/u/OC1_3.m3u8"
        },
    {
            "channel_id": 68,
            "channel_name": "Olympic Channel 2",
            "channel_description": "",
            "channel_url": "https://iocchannel-i.akamaihd.net/hls/live/514135/olylinear0629221316/DomesticOlympicsLinear_VIDEO_0_7064000.m3u8"
        },
    {
            "channel_id": 69,
            "channel_name": "Olympic Channel 3",
            "channel_description": "",
            "channel_url": "https://ott-live.olympicchannel.com/out/u/OC2_1.m3u8"
        },
    {
            "channel_id": 70,
            "channel_name": "Olympic Channel 4",
            "channel_description": "",
            "channel_url": "https://ott-live.olympicchannel.com/out/u/OC3_1.m3u8"
        },
    {
            "channel_id": 71,
            "channel_name": "Olympic Channel 5",
            "channel_description": "",
            "channel_url": "https://ott-live.olympicchannel.com/out/u/OC4_1.m3u8"
        },
    {
            "channel_id": 72,
            "channel_name": "Olympic Channel 6",
            "channel_description": "",
            "channel_url": "https://ott-live.olympicchannel.com/out/u/OC5_1.m3u8"
        },
	{
            "channel_id": 73,
            "channel_name": "CHIVE TV",
            "channel_description": "",
            "channel_url": "https://a.jsrdn.com/broadcast/4df1bf71c1/+0000/c.m3u8"
        },
	{
            "channel_id": 74,
            "channel_name": "Retro Music TV",
            "channel_description": "",
            "channel_url": "http://592f16fa90d9b.streamlock.net/retrotv/smil:retrotv2.smil/chunklist_w772554622_b750000.m3u8"
        },
	{
            "channel_id": 75,
            "channel_name": "ATV",
            "channel_description": "",
            "channel_url": "https://15813114727637862976168173814320.live.prod.hkatv.com/a1_cbr_lo.m3u8"
        },
	{
            "channel_id": 76,
            "channel_name": "SBS Star",
            "channel_description": "",
            "channel_url": "https://streaming-a-802.cdn.nextologies.com/SBS_18/playlist.m3u8"
        },
	{
            "channel_id": 77,
            "channel_name": "MVTV",
            "channel_description": "",
            "channel_url": "https://edge6a.v2h-cdn.com/appt4/MVTV75.stream_720p/playlist.m3u8"
        },
	{
            "channel_id": 78,
            "channel_name": "MV Laos",
            "channel_description": "",
            "channel_url": "https://edge6a.v2h-cdn.com/appt7/MVLAO.stream_720p/playlist.m3u8"
        },
	{
            "channel_id": 79,
            "channel_name": "MV Myanmar",
            "channel_description": "",
            "channel_url": "https://edge6a.v2h-cdn.com/appt7/MVM.stream_720p/playlist.m3u8"
    	},
	{
            "channel_id": 80,
            "channel_name": "TVB Thai",
            "channel_description": "",
            "channel_url": "https://edge6a.v2h-cdn.com/RE_HD/smil:TVB_HD_ABR.smil/playlist.m3u8"
        },
	{
            "channel_id": 81,
            "channel_name": "Thai Bann",
            "channel_description": "",
            "channel_url": "https://edge6a.v2h-cdn.com/appt3/Thaiban.stream_720p/playlist.m3u8"
        },
	{
            "channel_id": 82,
            "channel_name": "CAT HD",
            "channel_description": "",
            "channel_url": "https://cdn6.goprimetime.info/feed/CAT/index.m3u8"
        },
	{
            "channel_id": 83,
            "channel_name": "Movies Kingdom",
            "channel_description": "",
            "channel_url": "https://a.jsrdn.com/broadcast/e9b4093a41/+0000/c.m3u8"
        },
	{
            "channel_id": 84,
            "channel_name": "Lotus Macau",
            "channel_description": "",
            "channel_url": "https://cdn6.goprimetime.info/feed/LC41/index.m3u8"
        },
	{
            "channel_id": 85,
            "channel_name": "Fashion TV Midnite",
            "channel_description": "",
            "channel_url": "https://fash1043.cloudycdn.services/slive/_definst_/ftv_ftv_midnite_k1y_27049_midnite_secr_108_hls.smil/chunklist_b2800000_t64NzIwcA==.m3u8"
        },
	{
            "channel_id": 86,
            "channel_name": "@Prive HD",
            "channel_description": "",
            "channel_url": "https://y5w8j4a9.ssl.hwcdn.net/andprivehd/tracks-v1a1/index.m3u8"
        },
	{
            "channel_id": 87,
            "channel_name": "Channel 8",
            "channel_description": "",
            "channel_url": "http://54c241893bf39.streamlock.net:1935/ch8/ch8/chunklist.m3u8"
        },
    {
            "channel_id": 88,
            "channel_name": "EBS Kids",
            "channel_description": "",
            "channel_url": "http://ebsonairios.ebs.co.kr/ebsutablet500k/_definst_/tablet500k/chunklist_w1065959876.m3u8"
        },
	{
            "channel_id": 89,
            "channel_name": "CBSN",
            "channel_description": "",
            "channel_url": "https://cbsnhls-i.akamaihd.net/hls/live/264710/CBSN_mdialog/prodstream/master_2200.m3u8"
        },
	{
            "channel_id": 90,
            "channel_name": "NHK World",
            "channel_description": "",
            "channel_url": "https://nhkwlive-xjp.akamaized.net/hls/live/2003458/nhkwlive-xjp/index_1M.m3u8"
        },
	{
            "channel_id": 91,
            "channel_name": "Aljazeera",
            "channel_description": "",
            "channel_url": "https://live-hls-web-aje.getaj.net/AJE/01.m3u8"
        },
	{
            "channel_id": 92,
            "channel_name": "Australia Channel",
            "channel_description": "",
            "channel_url": "https://austchannel-live.akamaized.net/hls/live/2002729/austchannel-news/master1280x720.m3u8"
        },
	{
            "channel_id": 93,
            "channel_name": "Russia Today",
            "channel_description": "",
            "channel_url": "https://rt-uk.secure.footprint.net/1106.m3u8?fluxustv.m3u8"
        },
	{
            "channel_id": 94,
            "channel_name": "CBS News",
            "channel_description": "",
            "channel_url": "http://bcliveuniv-lh.akamaihd.net/i/iptv1_1@194050/master.m3u8"
        },
	{
            "channel_id": 95,
            "channel_name": "Cheddar",
            "channel_description": "",
            "channel_url": "https://live.chdrstatic.com/cbn/primary/1.m3u8"
        },
	{
            "channel_id": 96,
            "channel_name": "24 HD",
            "channel_description": "",
            "channel_url": "http://tagesschau-lh.akamaihd.net/i/tagesschau_1@119231/index_3776_av-p.m3u8?sd=10&rebase=on"
        },
	{
            "channel_id": 97,
            "channel_name": "ABC 2",
            "channel_description": "",
            "channel_url": "http://cms-wowza.lunabyte.io/wbrz-live-1/_definst_/smil:wbrz-live.smil/chunklist_b1300000.m3u8?fluxustv.m3u8"
        },
	{
            "channel_id": 98,
            "channel_name": "SBN",
            "channel_description": "",
            "channel_url": "https://sonlife7-i.akamaihd.net/hls/live/585011/ch7/master.m3u8"
        },
     {
            "channel_id": 99,
            "channel_name": "DW News",
            "channel_description": "",
            "channel_url": "http://dwstream4-lh.akamaihd.net/i/dwstream4_live@131329/index_1_av-p.m3u8"
        },   
    {
            "channel_id": 100,
            "channel_name": "ATN News",
            "channel_description": "",
            "channel_url": "https://d10rltuy0iweup.cloudfront.net/ATNNEWS/myStream/playlist.m3u8"
        }, 
	{
            "channel_id": 101,
            "channel_name": "ATN TV",
            "channel_description": "",
            "channel_url": "https://d10rltuy0iweup.cloudfront.net/ATNNAT/myStream/playlist.m3u8"
        },
    {
            "channel_id": 102,
            "channel_name": "Channel V China",
            "channel_description": "",
            "channel_url": "https://cdn6.goprimetime.info/feed/LC14/index.m3u8"
        },
    {
            "channel_id": 103,
            "channel_name": "Thoroughbred Central",
            "channel_description": "",
            "channel_url": "https://skylivesky-i.akamaihd.net/hls/live/569780/skylive/stcsd_extreme@569780.m3u8"
        },
    {
            "channel_id": 104,
			"channel_name": "Varzesh TV 2",
            "channel_description": "",
            "channel_url": "http://51.158.176.190/hls/stream.m3u8"
        },
    {
            "channel_id": 105,
            "channel_name": "The Outdoor Cooking Channel",
            "channel_description": "",
            "channel_url": "http://edge1.tikilive.com:1935/unrestricted_tikilive/25947/amlst:NWKlw6jwyXpz/chunklist_w981409619_b1105254.m3u8?fluxustv.m3u8"
        },
    {
            "channel_id": 106,
            "channel_name": "Hunt Channel",
            "channel_description": "",
            "channel_url": "https://1111296894.rsc.cdn77.org/LS-ATL-56868-1/tracks-v1a1/mono.m3u8"
        },
    {
            "channel_id": 107,
            "channel_name": "Adultswim",
            "channel_description": "",
            "channel_url": "https://adultswim-vodlive.cdn.turner.com/live/aqua-teen/stream.m3u8"
        },
    {
            "channel_id": 108,
            "channel_name": "Lux TV",
            "channel_description": "",
            "channel_url": "http://58.26.3.56/PLTV/88888888/224/3221226265/02.m3u8"
        },
    {
            "channel_id": 109,
            "channel_name": "Movie Now",
            "channel_description": "",
            "channel_url": "https://timesnow.airtel.tv/live/MN_pull/master.m3u8"
        },
    {
            "channel_id": 110,
            "channel_name": "WZRA Kids",
            "channel_description": "",
            "channel_url": "http://wpso.com:1936/hls/kidshd.m3u8"
        },
    {
            "channel_id": 111,
            "channel_name": "Baby TV",
            "channel_description": "",
            "channel_url": "http://185.232.53.5:2086/live/wickeduk/etqyhww45e/6980.m3u8"
		},
	{
            "channel_id": 112,
            "channel_name": "Cookies Asia",
            "channel_description": "",
            "channel_url": "https://d2p9n7qazh0vue.cloudfront.net/lt/ngrp:c2c4c9be-de30-4059-a430-dac9ed238eac_service/playlist.m3u8"
		},
	{
        	"channel_id": 113,
            "channel_name": "BTV",
            "channel_description": "",
            "channel_url" : "http://203.176.130.123:8989/live/bayontv1_480k.stream/playlist.m3u8"
        },
    {
        	"channel_id": 114,
            "channel_name": "Disney Channel",
            "channel_description": "",
            "channel_url" : "https://www.livedoomovies.com/02_DisneyXD_720p/chunklist.m3u8"
        },
    {
        	"channel_id": 115,
            "channel_name": "A-Play",
            "channel_description": "",
            "channel_url" : "http://103.253.72.107:9997/A-Movie/tracks-v1a1/mono.m3u8"
        },
    {
        	"channel_id": 116,
            "channel_name": "Narita Airport",
            "channel_description": "",
            "channel_url" : "http://movie.mcas.jp/mcas/gm2_2/chunklist.m3u8"
		},
	{
		    "channel_id": 117,
            "channel_name": "BBC World News",
            "channel_description": "",
            "channel_url" : "http://92.43.140.249/s24/04.m3u8?fluxustv.m3u8"
		},
	{
        	"channel_id": 118,
            "channel_name": "ZQ TV",
            "channel_description": "",
            "channel_url" : "http://iptv.zqstream.com/zqdrama-gen/video.m3u8?token=vQqPVtl-k0"
		},
	{
        	"channel_id": 119,
            "channel_name": "Fashion & Lifestyle HD",
            "channel_description": "",
            "channel_url" : "http://95.67.47.115/hls/hdfashion_ua_hi/index.m3u8"
		},
	{
        	"channel_id": 120,
            "channel_name": "N24",
            "channel_description": "",
            "channel_url" : "https://n24-cdn-live.ntv.co.jp/ch01/High.m3u8"
		},
	{
        	"channel_id": 121,
            "channel_name": "DW",
            "channel_description": "",
            "channel_url" : "http://dwstream72-lh.akamaihd.net/i/dwstream72_live@123556/index_1_av-b.m3u8"
		},
	{
        	"channel_id": 122,
            "channel_name": "Green Wave",
            "channel_description": "",
            "channel_url" : "http://real5.atimemedia.com/live/rtmp:greenlive.sdp/playlist.m3u8"
		},
	{
        	"channel_id": 123,
            "channel_name": "EFM",
            "channel_description": "",
            "channel_url" : "http://real5.atimemedia.com/live/rtmp:efmlive.sdp/playlist.m3u8"
		},
	{
        	"channel_id": 124,
            "channel_name": "Chill FM",
            "channel_description": "",
            "channel_url" : "http://real5.atimemedia.com/live/rtmp:chilllive.sdp/playlist.m3u8"
		},
	{
        	"channel_id": 125,
            "channel_name": "CCTV 1",
            "channel_description": "",
            "channel_url" : "http://183.207.248.71:80/cntv/live1/HD-8000k-1080P-cctv1/HD-8000k-1080P-cctv1"
		},
	{
        	"channel_id": 126,
            "channel_name": "CCTV 2",
            "channel_description": "",
            "channel_url" : "http://183.207.248.71:80/cntv/live1/HD-8000k-1080P-cctv2/HD-8000k-1080P-cctv2"
		},
	{
        	"channel_id": 127,
            "channel_name": "CCTV 3",
            "channel_description": "",
            "channel_url" : "http://183.207.248.71:80/cntv/live1/HD-8000k-1080P-cctv3/HD-8000k-1080P-cctv3"
		},
	{
        	"channel_id": 128,
            "channel_name": "CCTV 4",
            "channel_description": "",
            "channel_url" : "http://183.207.248.71:80/cntv/live1/cctv-4/cctv-4"
		},
	{
        	"channel_id": 129,
            "channel_name": "CCTV 5",
            "channel_description": "",
            "channel_url" : "http://183.207.248.71:80/cntv/live1/HD-8000k-1080P-cctv5/HD-8000k-1080P-cctv5"
		},
	{
        	"channel_id": 130,
            "channel_name": "CCTV 5 +",
            "channel_description": "",
            "channel_url" : "http://183.207.248.71:80/cntv/live1/HD-8000k-1080P-cctv05plus/HD-8000k-1080P-cctv05plus"
		},
	{
        	"channel_id": 131,
            "channel_name": "CCTV 6",
            "channel_description": "",
            "channel_url" : "http://183.207.248.71:80/cntv/live1/cctv-6/cctv-6"
		},
	{
        	"channel_id": 132,
            "channel_name": "CCTV 7",
            "channel_description": "",
            "channel_url" : "http://183.207.248.71:80/cntv/live1/HD-8000k-1080P-cctv7/HD-8000k-1080P-cctv7"
		},
	{
        	"channel_id": 133,
            "channel_name": "CCTV 8",
            "channel_description": "",
            "channel_url" : "http://183.207.248.71:80/cntv/live1/HD-8000k-1080P-cctv8/HD-8000k-1080P-cctv8"
		},
	{
        	"channel_id": 134,
            "channel_name": "CCTV 9",
            "channel_description": "",
            "channel_url" : "http://183.207.248.71:80/cntv/live1/HD-8000k-1080P-cctv9/HD-8000k-1080P-cctv9"
		},
	{
        	"channel_id": 135,
            "channel_name": "CCTV 10",
            "channel_description": "",
            "channel_url" : "http://183.207.248.71:80/cntv/live1/HD-8000k-1080P-cctv10/HD-8000k-1080P-cctv10"
		},
	{
        	"channel_id": 136,
            "channel_name": "CCTV 11",
            "channel_description": "",
            "channel_url" : "http://183.207.248.71:80/cntv/live1/n-cctv-11/n-cctv-11"
		},
	{
        	"channel_id": 137,
            "channel_name": "CCTV 12",
            "channel_description": "",
            "channel_url" : "http://183.207.248.71:80/cntv/live1/HD-8000k-1080P-cctv12/HD-8000k-1080P-cctv12"
		},
	{
        	"channel_id": 138,
            "channel_name": "CCTV 13",
            "channel_description": "",
            "channel_url" : "http://183.207.248.71:80/cntv/live1/cctv-13/cctv-13"
		},
	{
        	"channel_id": 139,
            "channel_name": "CCTV 14",
            "channel_description": "",
            "channel_url" : "http://183.207.248.71:80/cntv/live1/HD-8000k-1080P-cctv14/HD-8000k-1080P-cctv14"
		},
	{
        	"channel_id": 140,
            "channel_name": "CCTV 15",
            "channel_description": "",
            "channel_url" : "http://183.207.248.71:80/cntv/live1/n-cctv-15/n-cctv-15"
		},
	{
        	"channel_id": 141,
            "channel_name": "CCTV 17",
            "channel_description": "",
            "channel_url" : "http://183.207.248.71:80/cntv/live1/HD-8000k-1080P-cctv17/HD-8000k-1080P-cctv17"
		},
	{
        	"channel_id": 142,
            "channel_name": "CETV-1",
            "channel_description": "",
            "channel_url" : "http://183.207.248.71:80/cntv/live1/n-jiaoyutv/n-jiaoyutv"
		},
	{
        	"channel_id": 143,
            "channel_name": "CETV-2",
            "channel_description": "",
            "channel_url" : "http://183.207.248.71:80/cntv/live1/SD-4000k-576P-jiaoyutv2/SD-4000k-576P-jiaoyutv2"
		},
	{
        	"channel_id": 144,
            "channel_name": "CETV-4",
            "channel_description": "",
            "channel_url" : "http://183.207.248.71:80/cntv/live1/SD-4000k-576P-jiaoyutv4/SD-4000k-576P-jiaoyutv4"
		},
	{
        	"channel_id": 145,
            "channel_name": "Guangdong",
            "channel_description": "",
            "channel_url" : "http://183.207.248.71:80/cntv/live1/n-guangdongstv/n-guangdongstv"
		},
	{
        	"channel_id": 146,
            "channel_name": "Dongnans TV",
            "channel_description": "",
            "channel_url" : "http://183.207.248.71:80/cntv/live1/n-dongnanstv/n-dongnanstv"
		},
	{
        	"channel_id": 147,
            "channel_name": "Dongfangs TV",
            "channel_description": "",
            "channel_url" : "http://183.207.248.71:80/cntv/live1/n-dongfangstv/n-dongfangstv"
		},
	{
    		"channel_id": 148,
            "channel_name": "Beijings TV",
            "channel_description": "",
            "channel_url" : "http://183.207.248.71:80/cntv/live1/HD-2500k-1080P-beijingstv/HD-2500k-1080P-beijingstv"
		},
	{
    		"channel_id": 149,
            "channel_name": "Nanfangs TV",
            "channel_description": "",
            "channel_url" : "http://183.207.248.71:80/cntv/live1/SD-4000k-576P-nanfangstv/SD-4000k-576P-nanfangstv"
		},
	{
    		"channel_id": 150,
            "channel_name": "Xiamens TV",
            "channel_description": "",
            "channel_url" : "http://183.207.248.71:80/cntv/live1/SD-4000k-576P-xiamenstv/SD-4000k-576P-xiamenstv"
		},
	{
    		"channel_id": 151,
            "channel_name": "Tianjin TV",
            "channel_description": "",
            "channel_url" : "http://183.207.248.71:80/cntv/live1/HD-2500k-1080P-tianjinstv/HD-2500k-1080P-tianjinstv"
		},
	{
    		"channel_id": 152,
            "channel_name": "Anhui TV",
            "channel_description": "",
            "channel_url" : "http://183.207.248.71:80/cntv/live1/HD-8000k-1080P-anhuistv/HD-8000k-1080P-anhuistv"
		},
	{
    		"channel_id": 153,
            "channel_name": "Anhui TV",
            "channel_description": "",
            "channel_url" : "http://183.207.248.71:80/cntv/live1/jiangxistv/jiangxistv"
		},
	{
    		"channel_id": 154,
            "channel_name": "Hebei TV",
            "channel_description": "",
            "channel_url" : "http://183.207.248.71:80/cntv/live1/n-hebeistv/n-hebeistv"
		},
	{
    		"channel_id": 155,
            "channel_name": "Zhejiang TV",
            "channel_description": "",
            "channel_url" : "http://183.207.248.71:80/cntv/live1/zhejiangstv/zhejiangstv"
		},
	{
    		"channel_id": 156,
            "channel_name": "Shenzhen TV",
            "channel_description": "",
            "channel_url" : "http://183.207.248.71:80/cntv/live1/HD-2500k-1080P-shenzhenstv/HD-2500k-1080P-shenzhenstv"
		},
	{
    		"channel_id": 157,
            "channel_name": "Hubei TV",
            "channel_description": "",
            "channel_url" : "http://183.207.248.71:80/cntv/live1/HD-2500k-1080P-hubeistv/HD-2500k-1080P-hubeistv"
		},
	{
    		"channel_id": 158,
            "channel_name": "Chongqing TV",
            "channel_description": "",
            "channel_url" : "http://183.207.248.71:80/cntv/live1/HD-8000k-1080P-chongqingstv/HD-8000k-1080P-chongqingstv"
		},
	{
    		"channel_id": 159,
            "channel_name": "Sichuan TV",
            "channel_description": "",
            "channel_url" : "http://183.207.248.71:80/cntv/live1/n-sichuanstv/n-sichuanstv"
		},
	{
    		"channel_id": 160,
            "channel_name": "YNTV 1",
            "channel_description": "",
            "channel_url" : "http://183.207.248.71:80/cntv/live1/n-yntv1/n-yntv1"
		},
	{
    		"channel_id": 161,
            "channel_name": "Ningxia TV",
            "channel_description": "",
            "channel_url" : "http://183.207.248.71:80/cntv/live1/n-ningxiastv/n-ningxiastv"
		},
	{
    		"channel_id": 162,
            "channel_name": "Bingtuan TV",
            "channel_description": "",
            "channel_url" : "http://183.207.248.71:80/cntv/live1/SD-4000k-576P-bingtuanstv/SD-4000k-576P-bingtuanstv"
		},
	{
    		"channel_id": 163,
            "channel_name": "Neimenggu TV",
            "channel_description": "",
            "channel_url" : "http://183.207.248.71:80/cntv/live1/n-neimenggustv/n-neimenggustv"
		},
	{
    		"channel_id": 164,
            "channel_name": "Nonglin TV",
            "channel_description": "",
            "channel_url" : "http://183.207.248.71:80/cntv/live1/SD-4000k-576P-nonglinstv/SD-4000k-576P-nonglinstv"
		},
	{
    		"channel_id": 165,
            "channel_name": "Shanxi TV",
            "channel_description": "",
            "channel_url" : "http://183.207.248.71:80/cntv/live1/n-shanxistv/n-shanxistv"
		},
	{
    		"channel_id": 166,
            "channel_name": "Guangxi TV",
            "channel_description": "",
            "channel_url" : "http://183.207.248.71:80/cntv/live1/n-guangxistv/n-guangxistv"
		},
	{
    		"channel_id": 167,
            "channel_name": "Kamba TV",
            "channel_description": "",
            "channel_url" : "http://183.207.248.71:80/cntv/live1/SD-4000k-576P-kambatv/SD-4000k-576P-kambatv"
		},
	{
    		"channel_id": 168,
            "channel_name": "Yanbian TV",
            "channel_description": "",
            "channel_url" : "http://183.207.248.71:80/cntv/live1/SD-4000k-576P-yanbianstv/SD-4000k-576P-yanbianstv"
		},
	{
    		"channel_id": 169,
            "channel_name": "XJTV1",
            "channel_description": "",
            "channel_url" : "http://183.207.248.71:80/cntv/live1/n-xjtv1/n-xjtv1"
		},
	{
    		"channel_id": 170,
            "channel_name": "Gansu TV",
            "channel_description": "",
            "channel_url" : "http://183.207.248.71:80/cntv/live1/n-gansustv/n-gansustv"
		},
	{
    		"channel_id": 171,
            "channel_name": "Anduo TV",
            "channel_description": "",
            "channel_url" : "http://183.207.248.71:80/cntv/live1/anduostv/anduostv"
		},
	{
    		"channel_id": 172,
            "channel_name": "Ningxia TV",
            "channel_description": "",
            "channel_url" : "http://183.207.248.71:80/cntv/live1/n-ningxiastv/n-ningxiastv"
		},
	{
    		"channel_id": 173,
            "channel_name": "Xizang TV",
            "channel_description": "",
            "channel_url" : "http://183.207.248.71:80/cntv/live1/n-xizangstv/n-xizangstv"
		},
	{
    		"channel_id": 174,
            "channel_name": "Guizhou TV",
            "channel_description": "",
            "channel_url" : "http://183.207.248.71:80/cntv/live1/n-guizhoustv/n-guizhoustv"
		},
	{
    		"channel_id": 175,
            "channel_name": "Henan TV",
            "channel_description": "",
            "channel_url" : "http://183.207.248.71:80/cntv/live1/henanstv/henanstv"
		},
	{
    		"channel_id": 176,
            "channel_name": "Liaoning TV",
            "channel_description": "",
            "channel_url" : "http://183.207.248.71:80/cntv/live1/liaoningstv/liaoningstv"
		},
	{
    		"channel_id": 177,
            "channel_name": "Shanxi TV",
            "channel_description": "",
            "channel_url" : "http://183.207.248.71:80/cntv/live1/n-shanxi1stv/n-shanxi1stv"
		},
	{
    		"channel_id": 178,
            "channel_name": "Qinghai TV",
            "channel_description": "",
            "channel_url" : "http://183.207.248.71:80/cntv/live1/n-qinghaistv/n-qinghaistv"
		},
	{
    		"channel_id": 179,
            "channel_name": "Shanghaijishi TV",
            "channel_description": "",
            "channel_url" : "http://183.207.248.71:80/cntv/live1/HD-8000k-1080P-shanghaijishi/HD-8000k-1080P-shanghaijishi"
		},
	{
    		"channel_id": 180,
            "channel_name": "New TV",
            "channel_description": "",
            "channel_url" : "http://183.207.248.71:80/cntv/live1/n-bokesen/n-bokesen"
		},
	{
    		"channel_id": 181,
            "channel_name": "New TV Bokesen",
            "channel_description": "",
            "channel_url" : "http://183.207.248.71:80/cntv/live1/n-bokesen/n-bokesen"
		},
	{
    		"channel_id": 182,
            "channel_name": "New TV Ljiankangyouyue",
            "channel_description": "",
            "channel_url" : "http://183.207.248.71:80/cntv/live1/n-ljiankangyouyue/n-ljiankangyouyue"
		},
	{
    		"channel_id": 183,
            "channel_name": "New TV Junshipl",
            "channel_description": "",
            "channel_url" : "http://183.207.248.71:80/cntv/live1/n-junshipl/n-junshipl"
		},
	{
    		"channel_id": 184,
            "channel_name": "New TV Junlvjc",
            "channel_description": "",
            "channel_url" : "http://183.207.248.71:80/cntv/live1/n-junlvjc/n-junlvjc"
		},
	{
    		"channel_id": 185,
            "channel_name": "New TV Nongyezf",
            "channel_description": "",
            "channel_url" : "http://183.207.248.71:80/cntv/live1/n-nongyezf/n-nongyezf"
		},
	{
    		"channel_id": 186,
            "channel_name": "New TV Dongzuody",
            "channel_description": "",
            "channel_url" : "http://183.207.248.71:80/cntv/live1/n-dongzuody/n-dongzuody"
		},
	{
    		"channel_id": 187,
            "channel_name": "New TV Jiatingjc",
            "channel_description": "",
            "channel_url" : "http://183.207.248.71:80/cntv/live1/n-jiatingjc/n-jiatingjc"
		},
	{
    		"channel_id": 188,
            "channel_name": "New TV Jingsongxy",
            "channel_description": "",
            "channel_url" : "http://183.207.248.71:80/cntv/live1/n-jingsongxy/n-jingsongxy"
		},
	{
    		"channel_id": 189,
            "channel_name": "New TV Cmlapo",
            "channel_description": "",
            "channel_url" : "http://183.207.248.71:80/cntv/live1/n-cmlapo/n-cmlapo"
		},
	{
    		"channel_id": 190,
            "channel_name": "New TV XWWL",
            "channel_description": "",
            "channel_url" : "http://183.207.248.71:80/cntv/live1/HD-4000k-1080P-xwwl/HD-4000k-1080P-xwwl"
		},
	{
    		"channel_id": 191,
            "channel_name": "New TV Aiqingxj",
            "channel_description": "",
            "channel_url" : "http://183.207.248.71:80/cntv/live1/n-aiqingxj/n-aiqingxj"
		},
	{
    		"channel_id": 192,
            "channel_name": "New TV Jtiyu",
            "channel_description": "",
            "channel_url" : "http://183.207.248.71:80/cntv/live1/n-jtiyu/n-jtiyu"
		},
	{
    		"channel_id": 193,
            "channel_name": "New TV Jdaju",
            "channel_description": "",
            "channel_url" : "http://183.207.248.71:80/cntv/live1/n-jdaju/n-jdaju"
		},
	{
    		"channel_id": 194,
            "channel_name": "New TV Jingpinjl",
            "channel_description": "",
            "channel_url" : "http://183.207.248.71:80/cntv/live1/n-jingpinjl/n-jingpinjl"
		},
	{
    		"channel_id": 195,
            "channel_name": "New TV Saishijx",
            "channel_description": "",
            "channel_url" : "http://183.207.248.71:80/cntv/live1/n-saishijx/n-saishijx"
		},
	{
    		"channel_id": 196,
            "channel_name": "New TV Gzkongfu",
            "channel_description": "",
            "channel_url" : "http://183.207.248.71:80/cntv/live1/n-gzkongfu/n-gzkongfu"
		},
	{
    		"channel_id": 197,
            "channel_name": "New TV Xiqumd",
            "channel_description": "",
            "channel_url" : "http://183.207.248.71:80/cntv/live1/n-xiqumd/n-xiqumd"
		},
	{
    		"channel_id": 198,
            "channel_name": "New TV Mingxingdp",
            "channel_description": "",
            "channel_url" : "http://183.207.248.71:80/cntv/live1/n-mingxingdp/n-mingxingdp"
		},
	{
    		"channel_id": 199,
            "channel_name": "New TV Supermovie",
            "channel_description": "",
            "channel_url" : "http://183.207.248.71:80/cntv/live1/HD-8000k-1080P-Supermovie/HD-8000k-1080P-Supermovie"
		},
	{
    		"channel_id": 200,
            "channel_name": "New TV Donghuawg",
            "channel_description": "",
            "channel_url" : "http://183.207.248.71:80/cntv/live1/donghuawg/donghuawg"
		},
	{
    		"channel_id": 201,
            "channel_name": "BTV Kakukaton",
            "channel_description": "",
            "channel_url" : "http://183.207.248.71:80/cntv/live1/n-kakukaton/n-kakukaton"
		},
	{
    		"channel_id": 202,
            "channel_name": "Xuandongkaton",
            "channel_description": "",
            "channel_url" : "http://183.207.248.71:80/cntv/live1/n-xuandongkaton/n-xuandongkaton"
		},
	{
    		"channel_id": 203,
            "channel_name": "Jinyingkaton",
            "channel_description": "",
            "channel_url" : "http://183.207.248.71:80/cntv/live1/n-jinyingkaton/n-jinyingkaton"
		},
	{
    		"channel_id": 204,
            "channel_name": "Youmankaton",
            "channel_description": "",
            "channel_url" : "http://183.207.248.71:80/cntv/live1/n-youmankaton/n-youmankaton"
		},
	{
    		"channel_id": 205,
            "channel_name": "Zhmeishi",
            "channel_description": "",
            "channel_url" : "http://183.207.248.71:80/cntv/live1/SD-4000k-576P-zhmeishi/SD-4000k-576P-zhmeishi"
		},
	{
    		"channel_id": 206,
            "channel_name": "Chunxiang",
            "channel_description": "",
            "channel_url" : "http://183.207.248.71:80/cntv/live1/HD-20M-2160P-chunxiang4k/HD-20M-2160P-chunxiang4k"
		},
	{
    		"channel_id": 207,
            "channel_name": "FS1",
            "channel_description": "",
            "channel_url" : "http://stream.fs1.tv:8080/hls/webstream.m3u8"
		} 	
    ]
}